{
  "prepare_queue": {
    "installed": [],
    "uninstalled": []
  },
  "config_munge": {
    "files": {}
  },
  "installed_plugins": {
    "cordova-plugin-geolocation": {
      "PACKAGE_NAME": "io.cordova.androidTimeline"
    },
    "cordova-plugin-whitelist": {
      "PACKAGE_NAME": "io.cordova.androidTimeline"
    },
    "cordova-plugin-navigationbar": {
      "PACKAGE_NAME": "io.cordova.androidTimeline"
    },
    "cordova-plugin-camera": {
      "PACKAGE_NAME": "io.cordova.androidTimeline"
    }
  },
  "dependent_plugins": {}
}
